PSY 3307
…
---

```r
broom::tidy(lm_find)
```

```
## # A tibble: 51 x 5
##    term                 estimate std.error statistic   p.value
##    <chr>                   <dbl>     <dbl>     <dbl>     <dbl>
##  1 (Intercept)           0.121     0.00313    38.6   4.13e-267
##  2 state_abbreviationAK  0.0873    0.00539    16.2   8.82e- 57
##  3 state_abbreviationAL  0.0792    0.00428    18.5   7.99e- 73
##  4 state_abbreviationAR  0.0834    0.00417    20.0   9.75e- 84
##  5 state_abbreviationAZ  0.0435    0.00678     6.42  1.61e- 10
##  6 state_abbreviationCO  0.0222    0.00432     5.14  2.84e-  7
##  7 state_abbreviationCT -0.00110   0.00860    -0.128 8.98e-  1
##  8 state_abbreviationDC  0.0389    0.0173      2.25  2.46e-  2
##  9 state_abbreviationDE  0.0422    0.0124      3.40  6.94e-  4
## 10 state_abbreviationFL  0.0707    0.00428    16.5   7.02e- 59
## # ... with 41 more rows
```
…
